<?xml version="1.0" encoding="UTF-8" standalone="no"?>
<!DOCTYPE svg PUBLIC "-//W3C//DTD SVG 1.1//EN" "http://www.w3.org/Graphics/SVG/1.1/DTD/svg11.dtd">
<svg width="100%" height="100%" viewBox="0 0 225 168" version="1.1" xmlns="http://www.w3.org/2000/svg" xmlns:xlink="http://www.w3.org/1999/xlink" xml:space="preserve" xmlns:serif="http://www.serif.com/" style="fill-rule:evenodd;clip-rule:evenodd;stroke-linejoin:round;stroke-miterlimit:2;">
    <g transform="matrix(1,0,0,1,-427.958,-399.498)">
        <g>
            <path d="M458.5,512.1C450.4,512.9 442.1,514.3 437.1,515.5C434.2,516.2 432.4,516.1 431.1,515.4C429.4,514.4 428.9,512.9 428.9,510.8C428.9,507.6 428.9,502.1 429.2,494.7C429.4,487.2 429.9,477.7 430.8,466.7C431.9,453.3 437.7,442.5 445.4,434.1C455.8,422.8 469.6,415.8 480.1,412.7L483.2,411.8C502.6,406 542.3,394.2 564.2,411.9C586.4,429.9 592,457.2 592.3,458.7L600.8,492.9L602,497.7L597.5,495.7C588.2,491.6 555,501.8 538.7,506.8C536.4,507.5 534.5,508.1 532.8,508.6C527.3,510.2 518.8,511.1 509.8,511.6C497.9,512.2 485,512 476.8,511.4C472,511.1 465.3,511.4 458.5,512.1M436,510.8C441.2,509.6 449.7,508.2 458,507.3C465,506.6 472,506.2 477,506.5C485.1,507 497.8,507.2 509.5,506.7C518.2,506.3 526.3,505.4 531.4,503.9C532.8,503.5 534.8,502.9 537.3,502.1C552.4,497.5 581.4,488.6 595.2,490.2L587.7,459.8L587.7,459.7C587.7,459.6 582.7,432.9 561.3,415.6C541.4,399.5 503.3,410.8 484.7,416.3L481.6,417.2C471.8,420.1 458.8,426.6 449.1,437.2C442,444.9 436.7,454.8 435.7,466.9C434.8,478.1 434.3,487.4 434.1,494.7C433.9,502.1 433.8,507.5 433.8,510.6C433.8,511 433.3,510.9 433.5,511C433.7,511.3 434.4,511.2 436,510.8Z" style="fill-rule:nonzero;"/>
            <path d="M508.9,405.1C508.4,404.9 507.9,404.8 507.3,404.8C506.2,404.8 505.3,405.1 504.6,405.6C504.4,405.7 504.3,405.9 504.2,406C505.1,405.8 506.1,405.6 507,405.4L508.9,405.1ZM507.2,400C509.3,400 511.2,400.7 512.7,401.7C514.3,402.9 515.4,404.6 515.5,406.5L515.7,408.7L513.5,409.1C511.5,409.4 509.7,409.8 507.9,410.2C505.9,410.6 504.1,411 502.4,411.4L500.7,411.8L499.8,410.3C499.5,409.8 499.3,409.3 499.1,408.8C499,408.2 498.9,407.7 498.9,407.1C498.9,405 499.9,403.2 501.6,401.9C503,400.7 505.1,400 507.2,400Z" style="fill-rule:nonzero;"/>
            <path d="M486.7,417.2C487,416.6 487.3,416.1 487.6,415.5L484.5,416.4L481.5,417.3C471.7,420.2 458.7,426.7 449,437.3C441.9,445 436.6,454.9 435.6,467C434.9,476 434.4,483.8 434.1,490.3C433.7,499.3 433.6,506 433.7,509.9C433.7,510.7 433.6,511 433.7,511.1C433.9,511.2 434.6,511.1 435.9,510.9C439.3,510.3 444.1,509.5 449.2,508.7C453,508.2 457.1,507.6 461.2,507.2C464.3,506.9 467.3,506.7 470.1,506.5C472.6,506.4 475,506.4 477,506.5C480.2,506.7 484,506.9 488,506.9C490.9,507 493.9,507 497,507C496.2,503.8 494.5,497.3 491.4,485.4C487.2,469.5 486.7,465.8 485,452.7C484.7,450 484.2,446.7 483.6,442.2C482,430.6 484.2,422.4 486.7,417.2M495.5,413C495.4,413 493.1,414.8 491,419.2C488.8,423.8 486.9,431 488.4,441.6C488.9,445.4 489.4,449 489.8,452.1C491.5,464.9 491.9,468.5 496.1,484.2C501.3,503.7 502.5,509 502.5,509L502.7,510.2L501.8,511.1L500.1,511.8C495.9,511.9 491.7,511.9 487.9,511.8C483.6,511.7 479.8,511.6 476.6,511.4C474.7,511.3 472.5,511.3 470.2,511.4C467.5,511.5 464.6,511.7 461.6,512C457.8,512.4 453.7,512.9 449.8,513.5C444.5,514.3 439.9,515 436.7,515.6C434.2,516 432.5,516 431.1,515.2C429.5,514.2 428.8,512.6 428.8,509.9C428.8,505.9 428.8,499.2 429.2,490.1C429.5,483.4 430,475.5 430.7,466.6C431.8,453.2 437.6,442.4 445.3,434C455.7,422.7 469.5,415.7 480,412.6L483,411.7C486,410.8 489.4,409.8 493.3,408.7L495.5,413Z" style="fill-rule:nonzero;"/>
            <path d="M509.1,543C491.8,531.6 475.8,510.6 475.7,510.5L472.4,506.3L477.7,506.6C485.9,507.1 498.3,507.3 509.8,506.7C518.3,506.3 526.3,505.4 531.3,503.9C532.7,503.5 534.7,502.9 537.2,502.1C549.1,498.5 569.7,492.1 584.4,490.4L584.6,490.4L594.8,490.2L595.2,490.2L596.1,490.5L596.2,490.6C597.1,491.2 623.2,509.2 640,518.8C661.2,530.9 649.2,537.1 649.1,537.1L644.6,539.4L645.7,534.4C645.9,533.7 645.1,532.9 645.1,532.9L644.8,532.5C639.4,524.5 614.7,540.3 614.6,540.3C614.6,540.3 602.1,547.5 579.6,559.2C556,571.5 533.4,558.6 533.3,558.5L533.2,558.5C533.4,558.6 526.1,554.2 509.1,543M482.9,511.7C488.4,518.2 499.8,531 511.8,539C528.7,550.2 536,554.6 536,554.6C537.5,555.4 557.1,565.8 577.6,555.1C600,543.5 612.3,536.4 612.3,536.4C613.2,535.8 631.6,524.3 642.7,526.1C641.4,525.2 639.8,524.2 637.9,523.1C622.1,514.1 598.5,497.9 594.3,495.1L585,495.3C570.7,497 550.4,503.2 538.7,506.8C536.4,507.5 534.5,508.1 532.8,508.6C527.3,510.2 519,511.1 510.2,511.6C500.7,512 490.7,511.9 482.9,511.7Z" style="fill-rule:nonzero;"/>
            <path d="M625.9,540.5C623.6,539.5 621,538 618.7,536.7L615,534.5L618.8,532.5C623.1,530.2 628.9,527.6 634.3,526.4C640.2,525.1 645.7,525.4 648.8,529.7C649.3,530.3 651.2,532.6 650.6,535.5L650,536.6C647.4,539.4 643.8,540.8 640.3,541.4C637,542 633.6,542 631.2,542C629.8,542 627.9,541.4 625.9,540.5M625.1,534.8C626,535.3 626.9,535.7 627.8,536.1C629.3,536.7 630.5,537.2 631.3,537.2C633.5,537.2 636.5,537.2 639.4,536.7C641.8,536.3 644.1,535.4 645.8,533.9C645.6,533.4 645.2,532.9 645.2,532.9L644.9,532.5C643.3,530.1 639.6,530.1 635.4,531C632,531.9 628.4,533.3 625.1,534.8Z" style="fill-rule:nonzero;"/>
            <path d="M486,442C483,419.7 493.9,411.3 494,411.2C488.8,412.6 484.3,414 480.7,415.1C463.1,420.3 435.5,436.9 433.1,466.9C431.4,488.2 431.1,503.2 431.2,510C431.2,513.5 432.5,514 436.2,513.3C442,512.3 452,510.6 461.3,509.7C467.1,509.1 472.6,508.8 476.7,509.1C482.7,509.5 491.2,509.7 499.9,509.6C499.9,509.6 498.7,504.4 493.5,485C488.6,465.4 489.1,464.4 486,442"/>
            <g>
                <clipPath id="_clip1">
                    <path d="M486,442C483,419.7 493.9,411.3 494,411.2C488.8,412.6 484.3,414 480.7,415.1C463.1,420.3 435.5,436.9 433.1,466.9C431.4,488.2 431.1,503.2 431.2,510C431.2,513.5 432.5,514 436.2,513.3C442,512.3 452,510.6 461.3,509.7C467.1,509.1 472.6,508.8 476.7,509.1C482.7,509.5 491.2,509.7 499.9,509.6C499.9,509.6 498.7,504.4 493.5,485C488.6,465.4 489.1,464.4 486,442"/>
                </clipPath>
                <g clip-path="url(#_clip1)">
                    <path d="M398,478.9L513.4,531.9L512.5,534L397.1,481L398,478.9Z" style="fill-rule:nonzero;"/>
                </g>
                <clipPath id="_clip2">
                    <path d="M486,442C483,419.7 493.9,411.3 494,411.2C488.8,412.6 484.3,414 480.7,415.1C463.1,420.3 435.5,436.9 433.1,466.9C431.4,488.2 431.1,503.2 431.2,510C431.2,513.5 432.5,514 436.2,513.3C442,512.3 452,510.6 461.3,509.7C467.1,509.1 472.6,508.8 476.7,509.1C482.7,509.5 491.2,509.7 499.9,509.6C499.9,509.6 498.7,504.4 493.5,485C488.6,465.4 489.1,464.4 486,442"/>
                </clipPath>
                <g clip-path="url(#_clip2)">
                    <path d="M402.2,471L517.6,523.9L516.6,526.1L401.2,473.1L402.2,471Z" style="fill-rule:nonzero;"/>
                </g>
                <clipPath id="_clip3">
                    <path d="M486,442C483,419.7 493.9,411.3 494,411.2C488.8,412.6 484.3,414 480.7,415.1C463.1,420.3 435.5,436.9 433.1,466.9C431.4,488.2 431.1,503.2 431.2,510C431.2,513.5 432.5,514 436.2,513.3C442,512.3 452,510.6 461.3,509.7C467.1,509.1 472.6,508.8 476.7,509.1C482.7,509.5 491.2,509.7 499.9,509.6C499.9,509.6 498.7,504.4 493.5,485C488.6,465.4 489.1,464.4 486,442"/>
                </clipPath>
                <g clip-path="url(#_clip3)">
                    <path d="M406.3,463L521.7,516L520.7,518.1L405.3,465.1L406.3,463Z" style="fill-rule:nonzero;"/>
                </g>
                <clipPath id="_clip4">
                    <path d="M486,442C483,419.7 493.9,411.3 494,411.2C488.8,412.6 484.3,414 480.7,415.1C463.1,420.3 435.5,436.9 433.1,466.9C431.4,488.2 431.1,503.2 431.2,510C431.2,513.5 432.5,514 436.2,513.3C442,512.3 452,510.6 461.3,509.7C467.1,509.1 472.6,508.8 476.7,509.1C482.7,509.5 491.2,509.7 499.9,509.6C499.9,509.6 498.7,504.4 493.5,485C488.6,465.4 489.1,464.4 486,442"/>
                </clipPath>
                <g clip-path="url(#_clip4)">
                    <path d="M410.4,455.1L525.8,508.1L524.9,510.2L409.5,457.2L410.4,455.1Z" style="fill-rule:nonzero;"/>
                </g>
                <clipPath id="_clip5">
                    <path d="M486,442C483,419.7 493.9,411.3 494,411.2C488.8,412.6 484.3,414 480.7,415.1C463.1,420.3 435.5,436.9 433.1,466.9C431.4,488.2 431.1,503.2 431.2,510C431.2,513.5 432.5,514 436.2,513.3C442,512.3 452,510.6 461.3,509.7C467.1,509.1 472.6,508.8 476.7,509.1C482.7,509.5 491.2,509.7 499.9,509.6C499.9,509.6 498.7,504.4 493.5,485C488.6,465.4 489.1,464.4 486,442"/>
                </clipPath>
                <g clip-path="url(#_clip5)">
                    <path d="M414.6,447.2L530,500.2L529,502.3L413.6,449.3L414.6,447.2Z" style="fill-rule:nonzero;"/>
                </g>
                <clipPath id="_clip6">
                    <path d="M486,442C483,419.7 493.9,411.3 494,411.2C488.8,412.6 484.3,414 480.7,415.1C463.1,420.3 435.5,436.9 433.1,466.9C431.4,488.2 431.1,503.2 431.2,510C431.2,513.5 432.5,514 436.2,513.3C442,512.3 452,510.6 461.3,509.7C467.1,509.1 472.6,508.8 476.7,509.1C482.7,509.5 491.2,509.7 499.9,509.6C499.9,509.6 498.7,504.4 493.5,485C488.6,465.4 489.1,464.4 486,442"/>
                </clipPath>
                <g clip-path="url(#_clip6)">
                    <path d="M418.7,439.3L534.1,492.3L533.2,494.4L417.8,441.4L418.7,439.3Z" style="fill-rule:nonzero;"/>
                </g>
                <clipPath id="_clip7">
                    <path d="M486,442C483,419.7 493.9,411.3 494,411.2C488.8,412.6 484.3,414 480.7,415.1C463.1,420.3 435.5,436.9 433.1,466.9C431.4,488.2 431.1,503.2 431.2,510C431.2,513.5 432.5,514 436.2,513.3C442,512.3 452,510.6 461.3,509.7C467.1,509.1 472.6,508.8 476.7,509.1C482.7,509.5 491.2,509.7 499.9,509.6C499.9,509.6 498.7,504.4 493.5,485C488.6,465.4 489.1,464.4 486,442"/>
                </clipPath>
                <g clip-path="url(#_clip7)">
                    <path d="M422.9,431.4L538.3,484.3L537.3,486.4L421.9,433.5L422.9,431.4Z" style="fill-rule:nonzero;"/>
                </g>
                <clipPath id="_clip8">
                    <path d="M486,442C483,419.7 493.9,411.3 494,411.2C488.8,412.6 484.3,414 480.7,415.1C463.1,420.3 435.5,436.9 433.1,466.9C431.4,488.2 431.1,503.2 431.2,510C431.2,513.5 432.5,514 436.2,513.3C442,512.3 452,510.6 461.3,509.7C467.1,509.1 472.6,508.8 476.7,509.1C482.7,509.5 491.2,509.7 499.9,509.6C499.9,509.6 498.7,504.4 493.5,485C488.6,465.4 489.1,464.4 486,442"/>
                </clipPath>
                <g clip-path="url(#_clip8)">
                    <path d="M427,423.4L542.4,476.4L541.4,478.5L426,425.5L427,423.4Z" style="fill-rule:nonzero;"/>
                </g>
                <clipPath id="_clip9">
                    <path d="M486,442C483,419.7 493.9,411.3 494,411.2C488.8,412.6 484.3,414 480.7,415.1C463.1,420.3 435.5,436.9 433.1,466.9C431.4,488.2 431.1,503.2 431.2,510C431.2,513.5 432.5,514 436.2,513.3C442,512.3 452,510.6 461.3,509.7C467.1,509.1 472.6,508.8 476.7,509.1C482.7,509.5 491.2,509.7 499.9,509.6C499.9,509.6 498.7,504.4 493.5,485C488.6,465.4 489.1,464.4 486,442"/>
                </clipPath>
                <g clip-path="url(#_clip9)">
                    <path d="M431.1,415.5L546.5,468.5L545.6,470.6L430.2,417.6L431.1,415.5Z" style="fill-rule:nonzero;"/>
                </g>
                <clipPath id="_clip10">
                    <path d="M486,442C483,419.7 493.9,411.3 494,411.2C488.8,412.6 484.3,414 480.7,415.1C463.1,420.3 435.5,436.9 433.1,466.9C431.4,488.2 431.1,503.2 431.2,510C431.2,513.5 432.5,514 436.2,513.3C442,512.3 452,510.6 461.3,509.7C467.1,509.1 472.6,508.8 476.7,509.1C482.7,509.5 491.2,509.7 499.9,509.6C499.9,509.6 498.7,504.4 493.5,485C488.6,465.4 489.1,464.4 486,442"/>
                </clipPath>
                <g clip-path="url(#_clip10)">
                    <path d="M435.3,407.6L550.7,460.6L549.7,462.7L434.3,409.7L435.3,407.6Z" style="fill-rule:nonzero;"/>
                </g>
                <clipPath id="_clip11">
                    <path d="M486,442C483,419.7 493.9,411.3 494,411.2C488.8,412.6 484.3,414 480.7,415.1C463.1,420.3 435.5,436.9 433.1,466.9C431.4,488.2 431.1,503.2 431.2,510C431.2,513.5 432.5,514 436.2,513.3C442,512.3 452,510.6 461.3,509.7C467.1,509.1 472.6,508.8 476.7,509.1C482.7,509.5 491.2,509.7 499.9,509.6C499.9,509.6 498.7,504.4 493.5,485C488.6,465.4 489.1,464.4 486,442"/>
                </clipPath>
                <g clip-path="url(#_clip11)">
                    <path d="M439.4,399.7L554.8,452.7L553.8,454.8L438.5,401.8L439.4,399.7Z" style="fill-rule:nonzero;"/>
                </g>
                <clipPath id="_clip12">
                    <path d="M486,442C483,419.7 493.9,411.3 494,411.2C488.8,412.6 484.3,414 480.7,415.1C463.1,420.3 435.5,436.9 433.1,466.9C431.4,488.2 431.1,503.2 431.2,510C431.2,513.5 432.5,514 436.2,513.3C442,512.3 452,510.6 461.3,509.7C467.1,509.1 472.6,508.8 476.7,509.1C482.7,509.5 491.2,509.7 499.9,509.6C499.9,509.6 498.7,504.4 493.5,485C488.6,465.4 489.1,464.4 486,442"/>
                </clipPath>
                <g clip-path="url(#_clip12)">
                    <path d="M546.3,505.1L420.1,519.1L419.9,516.8L546.1,502.8L546.3,505.1Z" style="fill-rule:nonzero;"/>
                </g>
                <g transform="matrix(0.9939,-0.11,0.11,0.9939,-52.3151,56.04)">
                    <clipPath id="_clip13">
                        <path d="M486,442C483,419.7 493.9,411.3 494,411.2C488.8,412.6 484.3,414 480.7,415.1C463.1,420.3 435.5,436.9 433.1,466.9C431.4,488.2 431.1,503.2 431.2,510C431.2,513.5 432.5,514 436.2,513.3C442,512.3 452,510.6 461.3,509.7C467.1,509.1 472.6,508.8 476.7,509.1C482.7,509.5 491.2,509.7 499.9,509.6C499.9,509.6 498.7,504.4 493.5,485C488.6,465.4 489.1,464.4 486,442"/>
                    </clipPath>
                    <g clip-path="url(#_clip13)">
                        <rect x="418.2" y="500.9" width="127" height="2.3"/>
                    </g>
                </g>
                <clipPath id="_clip14">
                    <path d="M486,442C483,419.7 493.9,411.3 494,411.2C488.8,412.6 484.3,414 480.7,415.1C463.1,420.3 435.5,436.9 433.1,466.9C431.4,488.2 431.1,503.2 431.2,510C431.2,513.5 432.5,514 436.2,513.3C442,512.3 452,510.6 461.3,509.7C467.1,509.1 472.6,508.8 476.7,509.1C482.7,509.5 491.2,509.7 499.9,509.6C499.9,509.6 498.7,504.4 493.5,485C488.6,465.4 489.1,464.4 486,442"/>
                </clipPath>
                <g clip-path="url(#_clip14)">
                    <path d="M543.5,487.5L417.3,501.4L417,499.1L543.2,485.1L543.5,487.5Z" style="fill-rule:nonzero;"/>
                </g>
                <clipPath id="_clip15">
                    <path d="M486,442C483,419.7 493.9,411.3 494,411.2C488.8,412.6 484.3,414 480.7,415.1C463.1,420.3 435.5,436.9 433.1,466.9C431.4,488.2 431.1,503.2 431.2,510C431.2,513.5 432.5,514 436.2,513.3C442,512.3 452,510.6 461.3,509.7C467.1,509.1 472.6,508.8 476.7,509.1C482.7,509.5 491.2,509.7 499.9,509.6C499.9,509.6 498.7,504.4 493.5,485C488.6,465.4 489.1,464.4 486,442"/>
                </clipPath>
                <g clip-path="url(#_clip15)">
                    <path d="M542,478.6L415.8,492.6L415.6,490.3L541.8,476.3L542,478.6Z" style="fill-rule:nonzero;"/>
                </g>
                <clipPath id="_clip16">
                    <path d="M486,442C483,419.7 493.9,411.3 494,411.2C488.8,412.6 484.3,414 480.7,415.1C463.1,420.3 435.5,436.9 433.1,466.9C431.4,488.2 431.1,503.2 431.2,510C431.2,513.5 432.5,514 436.2,513.3C442,512.3 452,510.6 461.3,509.7C467.1,509.1 472.6,508.8 476.7,509.1C482.7,509.5 491.2,509.7 499.9,509.6C499.9,509.6 498.7,504.4 493.5,485C488.6,465.4 489.1,464.4 486,442"/>
                </clipPath>
                <g clip-path="url(#_clip16)">
                    <path d="M540.6,469.8L414.4,483.8L414.1,481.5L540.4,467.5L540.6,469.8Z" style="fill-rule:nonzero;"/>
                </g>
                <clipPath id="_clip17">
                    <path d="M486,442C483,419.7 493.9,411.3 494,411.2C488.8,412.6 484.3,414 480.7,415.1C463.1,420.3 435.5,436.9 433.1,466.9C431.4,488.2 431.1,503.2 431.2,510C431.2,513.5 432.5,514 436.2,513.3C442,512.3 452,510.6 461.3,509.7C467.1,509.1 472.6,508.8 476.7,509.1C482.7,509.5 491.2,509.7 499.9,509.6C499.9,509.6 498.7,504.4 493.5,485C488.6,465.4 489.1,464.4 486,442"/>
                </clipPath>
                <g clip-path="url(#_clip17)">
                    <path d="M539.2,461L413,475L412.7,472.6L538.9,458.7L539.2,461Z" style="fill-rule:nonzero;"/>
                </g>
                <g transform="matrix(0.9939,-0.11,0.11,0.9939,-47.4962,54.9703)">
                    <clipPath id="_clip18">
                        <path d="M486,442C483,419.7 493.9,411.3 494,411.2C488.8,412.6 484.3,414 480.7,415.1C463.1,420.3 435.5,436.9 433.1,466.9C431.4,488.2 431.1,503.2 431.2,510C431.2,513.5 432.5,514 436.2,513.3C442,512.3 452,510.6 461.3,509.7C467.1,509.1 472.6,508.8 476.7,509.1C482.7,509.5 491.2,509.7 499.9,509.6C499.9,509.6 498.7,504.4 493.5,485C488.6,465.4 489.1,464.4 486,442"/>
                    </clipPath>
                    <g clip-path="url(#_clip18)">
                        <rect x="411" y="456.8" width="127" height="2.3"/>
                    </g>
                </g>
                <g transform="matrix(0.9939,-0.11,0.11,0.9939,-46.544,54.7709)">
                    <clipPath id="_clip19">
                        <path d="M486,442C483,419.7 493.9,411.3 494,411.2C488.8,412.6 484.3,414 480.7,415.1C463.1,420.3 435.5,436.9 433.1,466.9C431.4,488.2 431.1,503.2 431.2,510C431.2,513.5 432.5,514 436.2,513.3C442,512.3 452,510.6 461.3,509.7C467.1,509.1 472.6,508.8 476.7,509.1C482.7,509.5 491.2,509.7 499.9,509.6C499.9,509.6 498.7,504.4 493.5,485C488.6,465.4 489.1,464.4 486,442"/>
                    </clipPath>
                    <g clip-path="url(#_clip19)">
                        <rect x="409.6" y="448" width="127" height="2.3"/>
                    </g>
                </g>
                <clipPath id="_clip20">
                    <path d="M486,442C483,419.7 493.9,411.3 494,411.2C488.8,412.6 484.3,414 480.7,415.1C463.1,420.3 435.5,436.9 433.1,466.9C431.4,488.2 431.1,503.2 431.2,510C431.2,513.5 432.5,514 436.2,513.3C442,512.3 452,510.6 461.3,509.7C467.1,509.1 472.6,508.8 476.7,509.1C482.7,509.5 491.2,509.7 499.9,509.6C499.9,509.6 498.7,504.4 493.5,485C488.6,465.4 489.1,464.4 486,442"/>
                </clipPath>
                <g clip-path="url(#_clip20)">
                    <path d="M534.9,434.5L408.7,448.5L408.4,446.2L534.6,432.2L534.9,434.5Z" style="fill-rule:nonzero;"/>
                </g>
                <g transform="matrix(0.9939,-0.11,0.11,0.9939,-44.6214,54.3495)">
                    <clipPath id="_clip21">
                        <path d="M486,442C483,419.7 493.9,411.3 494,411.2C488.8,412.6 484.3,414 480.7,415.1C463.1,420.3 435.5,436.9 433.1,466.9C431.4,488.2 431.1,503.2 431.2,510C431.2,513.5 432.5,514 436.2,513.3C442,512.3 452,510.6 461.3,509.7C467.1,509.1 472.6,508.8 476.7,509.1C482.7,509.5 491.2,509.7 499.9,509.6C499.9,509.6 498.7,504.4 493.5,485C488.6,465.4 489.1,464.4 486,442"/>
                    </clipPath>
                    <g clip-path="url(#_clip21)">
                        <rect x="406.7" y="430.4" width="127" height="2.3"/>
                    </g>
                </g>
                <g transform="matrix(0.9939,-0.11,0.11,0.9939,-43.6502,54.1249)">
                    <clipPath id="_clip22">
                        <path d="M486,442C483,419.7 493.9,411.3 494,411.2C488.8,412.6 484.3,414 480.7,415.1C463.1,420.3 435.5,436.9 433.1,466.9C431.4,488.2 431.1,503.2 431.2,510C431.2,513.5 432.5,514 436.2,513.3C442,512.3 452,510.6 461.3,509.7C467.1,509.1 472.6,508.8 476.7,509.1C482.7,509.5 491.2,509.7 499.9,509.6C499.9,509.6 498.7,504.4 493.5,485C488.6,465.4 489.1,464.4 486,442"/>
                    </clipPath>
                    <g clip-path="url(#_clip22)">
                        <rect x="405.3" y="421.6" width="127" height="2.3"/>
                    </g>
                </g>
                <clipPath id="_clip23">
                    <path d="M486,442C483,419.7 493.9,411.3 494,411.2C488.8,412.6 484.3,414 480.7,415.1C463.1,420.3 435.5,436.9 433.1,466.9C431.4,488.2 431.1,503.2 431.2,510C431.2,513.5 432.5,514 436.2,513.3C442,512.3 452,510.6 461.3,509.7C467.1,509.1 472.6,508.8 476.7,509.1C482.7,509.5 491.2,509.7 499.9,509.6C499.9,509.6 498.7,504.4 493.5,485C488.6,465.4 489.1,464.4 486,442"/>
                </clipPath>
                <g clip-path="url(#_clip23)">
                    <path d="M395.8,483.3L511.2,536.3L510.2,538.4L394.8,485.4L395.8,483.3Z" style="fill-rule:nonzero;"/>
                </g>
                <clipPath id="_clip24">
                    <path d="M486,442C483,419.7 493.9,411.3 494,411.2C488.8,412.6 484.3,414 480.7,415.1C463.1,420.3 435.5,436.9 433.1,466.9C431.4,488.2 431.1,503.2 431.2,510C431.2,513.5 432.5,514 436.2,513.3C442,512.3 452,510.6 461.3,509.7C467.1,509.1 472.6,508.8 476.7,509.1C482.7,509.5 491.2,509.7 499.9,509.6C499.9,509.6 498.7,504.4 493.5,485C488.6,465.4 489.1,464.4 486,442"/>
                </clipPath>
                <g clip-path="url(#_clip24)">
                    <path d="M399.9,475.4L515.3,528.4L514.3,530.5L399,477.5L399.9,475.4Z" style="fill-rule:nonzero;"/>
                </g>
                <clipPath id="_clip25">
                    <path d="M486,442C483,419.7 493.9,411.3 494,411.2C488.8,412.6 484.3,414 480.7,415.1C463.1,420.3 435.5,436.9 433.1,466.9C431.4,488.2 431.1,503.2 431.2,510C431.2,513.5 432.5,514 436.2,513.3C442,512.3 452,510.6 461.3,509.7C467.1,509.1 472.6,508.8 476.7,509.1C482.7,509.5 491.2,509.7 499.9,509.6C499.9,509.6 498.7,504.4 493.5,485C488.6,465.4 489.1,464.4 486,442"/>
                </clipPath>
                <g clip-path="url(#_clip25)">
                    <path d="M404.1,467.5L519.4,520.4L518.5,522.6L403.1,469.6L404.1,467.5Z" style="fill-rule:nonzero;"/>
                </g>
                <clipPath id="_clip26">
                    <path d="M486,442C483,419.7 493.9,411.3 494,411.2C488.8,412.6 484.3,414 480.7,415.1C463.1,420.3 435.5,436.9 433.1,466.9C431.4,488.2 431.1,503.2 431.2,510C431.2,513.5 432.5,514 436.2,513.3C442,512.3 452,510.6 461.3,509.7C467.1,509.1 472.6,508.8 476.7,509.1C482.7,509.5 491.2,509.7 499.9,509.6C499.9,509.6 498.7,504.4 493.5,485C488.6,465.4 489.1,464.4 486,442"/>
                </clipPath>
                <g clip-path="url(#_clip26)">
                    <path d="M408.2,459.5L523.6,512.5L522.6,514.6L407.2,461.6L408.2,459.5Z" style="fill-rule:nonzero;"/>
                </g>
                <clipPath id="_clip27">
                    <path d="M486,442C483,419.7 493.9,411.3 494,411.2C488.8,412.6 484.3,414 480.7,415.1C463.1,420.3 435.5,436.9 433.1,466.9C431.4,488.2 431.1,503.2 431.2,510C431.2,513.5 432.5,514 436.2,513.3C442,512.3 452,510.6 461.3,509.7C467.1,509.1 472.6,508.8 476.7,509.1C482.7,509.5 491.2,509.7 499.9,509.6C499.9,509.6 498.7,504.4 493.5,485C488.6,465.4 489.1,464.4 486,442"/>
                </clipPath>
                <g clip-path="url(#_clip27)">
                    <path d="M412.3,451.6L527.7,504.6L526.8,506.7L411.4,453.7L412.3,451.6Z" style="fill-rule:nonzero;"/>
                </g>
                <clipPath id="_clip28">
                    <path d="M486,442C483,419.7 493.9,411.3 494,411.2C488.8,412.6 484.3,414 480.7,415.1C463.1,420.3 435.5,436.9 433.1,466.9C431.4,488.2 431.1,503.2 431.2,510C431.2,513.5 432.5,514 436.2,513.3C442,512.3 452,510.6 461.3,509.7C467.1,509.1 472.6,508.8 476.7,509.1C482.7,509.5 491.2,509.7 499.9,509.6C499.9,509.6 498.7,504.4 493.5,485C488.6,465.4 489.1,464.4 486,442"/>
                </clipPath>
                <g clip-path="url(#_clip28)">
                    <path d="M416.5,443.7L531.9,496.7L530.9,498.8L415.5,445.8L416.5,443.7Z" style="fill-rule:nonzero;"/>
                </g>
                <clipPath id="_clip29">
                    <path d="M486,442C483,419.7 493.9,411.3 494,411.2C488.8,412.6 484.3,414 480.7,415.1C463.1,420.3 435.5,436.9 433.1,466.9C431.4,488.2 431.1,503.2 431.2,510C431.2,513.5 432.5,514 436.2,513.3C442,512.3 452,510.6 461.3,509.7C467.1,509.1 472.6,508.8 476.7,509.1C482.7,509.5 491.2,509.7 499.9,509.6C499.9,509.6 498.7,504.4 493.5,485C488.6,465.4 489.1,464.4 486,442"/>
                </clipPath>
                <g clip-path="url(#_clip29)">
                    <path d="M420.6,435.8L536,488.8L535,490.9L419.6,437.9L420.6,435.8Z" style="fill-rule:nonzero;"/>
                </g>
                <clipPath id="_clip30">
                    <path d="M486,442C483,419.7 493.9,411.3 494,411.2C488.8,412.6 484.3,414 480.7,415.1C463.1,420.3 435.5,436.9 433.1,466.9C431.4,488.2 431.1,503.2 431.2,510C431.2,513.5 432.5,514 436.2,513.3C442,512.3 452,510.6 461.3,509.7C467.1,509.1 472.6,508.8 476.7,509.1C482.7,509.5 491.2,509.7 499.9,509.6C499.9,509.6 498.7,504.4 493.5,485C488.6,465.4 489.1,464.4 486,442"/>
                </clipPath>
                <g clip-path="url(#_clip30)">
                    <path d="M424.7,427.9L540.1,480.8L539.2,482.9L423.8,430L424.7,427.9Z" style="fill-rule:nonzero;"/>
                </g>
                <clipPath id="_clip31">
                    <path d="M486,442C483,419.7 493.9,411.3 494,411.2C488.8,412.6 484.3,414 480.7,415.1C463.1,420.3 435.5,436.9 433.1,466.9C431.4,488.2 431.1,503.2 431.2,510C431.2,513.5 432.5,514 436.2,513.3C442,512.3 452,510.6 461.3,509.7C467.1,509.1 472.6,508.8 476.7,509.1C482.7,509.5 491.2,509.7 499.9,509.6C499.9,509.6 498.7,504.4 493.5,485C488.6,465.4 489.1,464.4 486,442"/>
                </clipPath>
                <g clip-path="url(#_clip31)">
                    <path d="M428.9,419.9L544.3,472.9L543.3,475L427.9,422L428.9,419.9Z" style="fill-rule:nonzero;"/>
                </g>
                <clipPath id="_clip32">
                    <path d="M486,442C483,419.7 493.9,411.3 494,411.2C488.8,412.6 484.3,414 480.7,415.1C463.1,420.3 435.5,436.9 433.1,466.9C431.4,488.2 431.1,503.2 431.2,510C431.2,513.5 432.5,514 436.2,513.3C442,512.3 452,510.6 461.3,509.7C467.1,509.1 472.6,508.8 476.7,509.1C482.7,509.5 491.2,509.7 499.9,509.6C499.9,509.6 498.7,504.4 493.5,485C488.6,465.4 489.1,464.4 486,442"/>
                </clipPath>
                <g clip-path="url(#_clip32)">
                    <path d="M433,412L548.4,465L547.5,467.1L432.1,414.1L433,412Z" style="fill-rule:nonzero;"/>
                </g>
                <clipPath id="_clip33">
                    <path d="M486,442C483,419.7 493.9,411.3 494,411.2C488.8,412.6 484.3,414 480.7,415.1C463.1,420.3 435.5,436.9 433.1,466.9C431.4,488.2 431.1,503.2 431.2,510C431.2,513.5 432.5,514 436.2,513.3C442,512.3 452,510.6 461.3,509.7C467.1,509.1 472.6,508.8 476.7,509.1C482.7,509.5 491.2,509.7 499.9,509.6C499.9,509.6 498.7,504.4 493.5,485C488.6,465.4 489.1,464.4 486,442"/>
                </clipPath>
                <g clip-path="url(#_clip33)">
                    <path d="M437.2,404.1L552.5,457.1L551.6,459.2L436.2,406.2L437.2,404.1Z" style="fill-rule:nonzero;"/>
                </g>
                <clipPath id="_clip34">
                    <path d="M486,442C483,419.7 493.9,411.3 494,411.2C488.8,412.6 484.3,414 480.7,415.1C463.1,420.3 435.5,436.9 433.1,466.9C431.4,488.2 431.1,503.2 431.2,510C431.2,513.5 432.5,514 436.2,513.3C442,512.3 452,510.6 461.3,509.7C467.1,509.1 472.6,508.8 476.7,509.1C482.7,509.5 491.2,509.7 499.9,509.6C499.9,509.6 498.7,504.4 493.5,485C488.6,465.4 489.1,464.4 486,442"/>
                </clipPath>
                <g clip-path="url(#_clip34)">
                    <path d="M544.1,509.5L417.9,523.5L417.6,521.2L543.8,507.2L544.1,509.5Z" style="fill-rule:nonzero;"/>
                </g>
                <g transform="matrix(0.9939,-0.11,0.11,0.9939,-52.8159,55.8184)">
                    <clipPath id="_clip35">
                        <path d="M486,442C483,419.7 493.9,411.3 494,411.2C488.8,412.6 484.3,414 480.7,415.1C463.1,420.3 435.5,436.9 433.1,466.9C431.4,488.2 431.1,503.2 431.2,510C431.2,513.5 432.5,514 436.2,513.3C442,512.3 452,510.6 461.3,509.7C467.1,509.1 472.6,508.8 476.7,509.1C482.7,509.5 491.2,509.7 499.9,509.6C499.9,509.6 498.7,504.4 493.5,485C488.6,465.4 489.1,464.4 486,442"/>
                    </clipPath>
                    <g clip-path="url(#_clip35)">
                        <rect x="415.9" y="505.4" width="127" height="2.3"/>
                    </g>
                </g>
                <clipPath id="_clip36">
                    <path d="M486,442C483,419.7 493.9,411.3 494,411.2C488.8,412.6 484.3,414 480.7,415.1C463.1,420.3 435.5,436.9 433.1,466.9C431.4,488.2 431.1,503.2 431.2,510C431.2,513.5 432.5,514 436.2,513.3C442,512.3 452,510.6 461.3,509.7C467.1,509.1 472.6,508.8 476.7,509.1C482.7,509.5 491.2,509.7 499.9,509.6C499.9,509.6 498.7,504.4 493.5,485C488.6,465.4 489.1,464.4 486,442"/>
                </clipPath>
                <g clip-path="url(#_clip36)">
                    <path d="M541.2,491.9L415,505.8L414.8,503.5L541,489.6L541.2,491.9Z" style="fill-rule:nonzero;"/>
                </g>
                <g transform="matrix(0.9939,-0.11,0.11,0.9939,-50.8899,55.3928)">
                    <clipPath id="_clip37">
                        <path d="M486,442C483,419.7 493.9,411.3 494,411.2C488.8,412.6 484.3,414 480.7,415.1C463.1,420.3 435.5,436.9 433.1,466.9C431.4,488.2 431.1,503.2 431.2,510C431.2,513.5 432.5,514 436.2,513.3C442,512.3 452,510.6 461.3,509.7C467.1,509.1 472.6,508.8 476.7,509.1C482.7,509.5 491.2,509.7 499.9,509.6C499.9,509.6 498.7,504.4 493.5,485C488.6,465.4 489.1,464.4 486,442"/>
                    </clipPath>
                    <g clip-path="url(#_clip37)">
                        <rect x="413.1" y="487.7" width="127" height="2.3"/>
                    </g>
                </g>
                <g transform="matrix(0.9939,-0.11,0.11,0.9939,-49.9224,55.1742)">
                    <clipPath id="_clip38">
                        <path d="M486,442C483,419.7 493.9,411.3 494,411.2C488.8,412.6 484.3,414 480.7,415.1C463.1,420.3 435.5,436.9 433.1,466.9C431.4,488.2 431.1,503.2 431.2,510C431.2,513.5 432.5,514 436.2,513.3C442,512.3 452,510.6 461.3,509.7C467.1,509.1 472.6,508.8 476.7,509.1C482.7,509.5 491.2,509.7 499.9,509.6C499.9,509.6 498.7,504.4 493.5,485C488.6,465.4 489.1,464.4 486,442"/>
                    </clipPath>
                    <g clip-path="url(#_clip38)">
                        <rect x="411.6" y="478.9" width="127" height="2.3"/>
                    </g>
                </g>
                <clipPath id="_clip39">
                    <path d="M486,442C483,419.7 493.9,411.3 494,411.2C488.8,412.6 484.3,414 480.7,415.1C463.1,420.3 435.5,436.9 433.1,466.9C431.4,488.2 431.1,503.2 431.2,510C431.2,513.5 432.5,514 436.2,513.3C442,512.3 452,510.6 461.3,509.7C467.1,509.1 472.6,508.8 476.7,509.1C482.7,509.5 491.2,509.7 499.9,509.6C499.9,509.6 498.7,504.4 493.5,485C488.6,465.4 489.1,464.4 486,442"/>
                </clipPath>
                <g clip-path="url(#_clip39)">
                    <path d="M536.9,465.4L410.7,479.4L410.5,477.1L536.7,463.1L536.9,465.4Z" style="fill-rule:nonzero;"/>
                </g>
                <g transform="matrix(0.9939,-0.11,0.11,0.9939,-47.9966,54.7485)">
                    <clipPath id="_clip40">
                        <path d="M486,442C483,419.7 493.9,411.3 494,411.2C488.8,412.6 484.3,414 480.7,415.1C463.1,420.3 435.5,436.9 433.1,466.9C431.4,488.2 431.1,503.2 431.2,510C431.2,513.5 432.5,514 436.2,513.3C442,512.3 452,510.6 461.3,509.7C467.1,509.1 472.6,508.8 476.7,509.1C482.7,509.5 491.2,509.7 499.9,509.6C499.9,509.6 498.7,504.4 493.5,485C488.6,465.4 489.1,464.4 486,442"/>
                    </clipPath>
                    <g clip-path="url(#_clip40)">
                        <rect x="408.8" y="461.3" width="127" height="2.3"/>
                    </g>
                </g>
                <g transform="matrix(0.9939,-0.11,0.11,0.9939,-47.0445,54.5491)">
                    <clipPath id="_clip41">
                        <path d="M486,442C483,419.7 493.9,411.3 494,411.2C488.8,412.6 484.3,414 480.7,415.1C463.1,420.3 435.5,436.9 433.1,466.9C431.4,488.2 431.1,503.2 431.2,510C431.2,513.5 432.5,514 436.2,513.3C442,512.3 452,510.6 461.3,509.7C467.1,509.1 472.6,508.8 476.7,509.1C482.7,509.5 491.2,509.7 499.9,509.6C499.9,509.6 498.7,504.4 493.5,485C488.6,465.4 489.1,464.4 486,442"/>
                    </clipPath>
                    <g clip-path="url(#_clip41)">
                        <rect x="407.3" y="452.4" width="127" height="2.3"/>
                    </g>
                </g>
                <clipPath id="_clip42">
                    <path d="M486,442C483,419.7 493.9,411.3 494,411.2C488.8,412.6 484.3,414 480.7,415.1C463.1,420.3 435.5,436.9 433.1,466.9C431.4,488.2 431.1,503.2 431.2,510C431.2,513.5 432.5,514 436.2,513.3C442,512.3 452,510.6 461.3,509.7C467.1,509.1 472.6,508.8 476.7,509.1C482.7,509.5 491.2,509.7 499.9,509.6C499.9,509.6 498.7,504.4 493.5,485C488.6,465.4 489.1,464.4 486,442"/>
                </clipPath>
                <g clip-path="url(#_clip42)">
                    <path d="M532.6,438.9L406.4,452.9L406.1,450.6L532.4,436.6L532.6,438.9Z" style="fill-rule:nonzero;"/>
                </g>
                <g transform="matrix(0.9939,-0.11,0.11,0.9939,-45.1219,54.1276)">
                    <clipPath id="_clip43">
                        <path d="M486,442C483,419.7 493.9,411.3 494,411.2C488.8,412.6 484.3,414 480.7,415.1C463.1,420.3 435.5,436.9 433.1,466.9C431.4,488.2 431.1,503.2 431.2,510C431.2,513.5 432.5,514 436.2,513.3C442,512.3 452,510.6 461.3,509.7C467.1,509.1 472.6,508.8 476.7,509.1C482.7,509.5 491.2,509.7 499.9,509.6C499.9,509.6 498.7,504.4 493.5,485C488.6,465.4 489.1,464.4 486,442"/>
                    </clipPath>
                    <g clip-path="url(#_clip43)">
                        <rect x="404.5" y="434.8" width="127" height="2.3"/>
                    </g>
                </g>
                <g transform="matrix(0.9939,-0.11,0.11,0.9939,-44.1506,53.9032)">
                    <clipPath id="_clip44">
                        <path d="M486,442C483,419.7 493.9,411.3 494,411.2C488.8,412.6 484.3,414 480.7,415.1C463.1,420.3 435.5,436.9 433.1,466.9C431.4,488.2 431.1,503.2 431.2,510C431.2,513.5 432.5,514 436.2,513.3C442,512.3 452,510.6 461.3,509.7C467.1,509.1 472.6,508.8 476.7,509.1C482.7,509.5 491.2,509.7 499.9,509.6C499.9,509.6 498.7,504.4 493.5,485C488.6,465.4 489.1,464.4 486,442"/>
                    </clipPath>
                    <g clip-path="url(#_clip44)">
                        <rect x="403" y="426" width="127" height="2.3"/>
                    </g>
                </g>
                <clipPath id="_clip45">
                    <path d="M486,442C483,419.7 493.9,411.3 494,411.2C488.8,412.6 484.3,414 480.7,415.1C463.1,420.3 435.5,436.9 433.1,466.9C431.4,488.2 431.1,503.2 431.2,510C431.2,513.5 432.5,514 436.2,513.3C442,512.3 452,510.6 461.3,509.7C467.1,509.1 472.6,508.8 476.7,509.1C482.7,509.5 491.2,509.7 499.9,509.6C499.9,509.6 498.7,504.4 493.5,485C488.6,465.4 489.1,464.4 486,442"/>
                </clipPath>
                <g clip-path="url(#_clip45)">
                    <path d="M439.2,394.9L554.6,447.8L553.6,450L438.2,397L439.2,394.9Z" style="fill-rule:nonzero;"/>
                </g>
                <clipPath id="_clip46">
                    <path d="M486,442C483,419.7 493.9,411.3 494,411.2C488.8,412.6 484.3,414 480.7,415.1C463.1,420.3 435.5,436.9 433.1,466.9C431.4,488.2 431.1,503.2 431.2,510C431.2,513.5 432.5,514 436.2,513.3C442,512.3 452,510.6 461.3,509.7C467.1,509.1 472.6,508.8 476.7,509.1C482.7,509.5 491.2,509.7 499.9,509.6C499.9,509.6 498.7,504.4 493.5,485C488.6,465.4 489.1,464.4 486,442"/>
                </clipPath>
                <g clip-path="url(#_clip46)">
                    <path d="M393.9,486.7L509.3,539.7L508.3,541.8L393,488.9L393.9,486.7Z" style="fill-rule:nonzero;"/>
                </g>
                <g transform="matrix(0.9939,-0.11,0.11,0.9939,-43.0837,54.094)">
                    <clipPath id="_clip47">
                        <path d="M486,442C483,419.7 493.9,411.3 494,411.2C488.8,412.6 484.3,414 480.7,415.1C463.1,420.3 435.5,436.9 433.1,466.9C431.4,488.2 431.1,503.2 431.2,510C431.2,513.5 432.5,514 436.2,513.3C442,512.3 452,510.6 461.3,509.7C467.1,509.1 472.6,508.8 476.7,509.1C482.7,509.5 491.2,509.7 499.9,509.6C499.9,509.6 498.7,504.4 493.5,485C488.6,465.4 489.1,464.4 486,442"/>
                    </clipPath>
                    <g clip-path="url(#_clip47)">
                        <rect x="405.3" y="416.4" width="127" height="2.3"/>
                    </g>
                </g>
            </g>
        </g>
    </g>
</svg>
